
vongbaove.png
size: 512,512
format: RGBA8888
filter: Linear,Linear
repeat: none
1
  rotate: false
  xy: 2, 336
  size: 165, 165
  orig: 165, 165
  offset: 0, 0
  index: -1
2
  rotate: false
  xy: 2, 169
  size: 165, 165
  orig: 165, 165
  offset: 0, 0
  index: -1
3
  rotate: false
  xy: 169, 336
  size: 165, 165
  orig: 165, 165
  offset: 0, 0
  index: -1
4
  rotate: false
  xy: 2, 2
  size: 165, 165
  orig: 165, 165
  offset: 0, 0
  index: -1
5
  rotate: false
  xy: 169, 169
  size: 165, 165
  orig: 165, 165
  offset: 0, 0
  index: -1
6
  rotate: false
  xy: 336, 336
  size: 165, 165
  orig: 165, 165
  offset: 0, 0
  index: -1
7
  rotate: false
  xy: 169, 2
  size: 165, 165
  orig: 165, 165
  offset: 0, 0
  index: -1
