
heo.png
size: 512,128
format: RGBA8888
filter: Linear,Linear
repeat: none
ca
  rotate: false
  xy: 113, 21
  size: 121, 98
  orig: 121, 98
  offset: 0, 0
  index: -1
chan
  rotate: true
  xy: 420, 91
  size: 28, 56
  orig: 28, 56
  offset: 0, 0
  index: -1
dau
  rotate: false
  xy: 2, 2
  size: 109, 117
  orig: 109, 117
  offset: 0, 0
  index: -1
tays
  rotate: false
  xy: 300, 60
  size: 53, 59
  orig: 53, 59
  offset: 0, 0
  index: -1
tayt
  rotate: true
  xy: 355, 84
  size: 35, 63
  orig: 35, 63
  offset: 0, 0
  index: -1
than
  rotate: false
  xy: 236, 46
  size: 62, 73
  orig: 62, 73
  offset: 0, 0
  index: -1
vai
  rotate: true
  xy: 236, 25
  size: 19, 31
  orig: 19, 31
  offset: 0, 0
  index: -1
