
monkey.png
size: 1024,256
format: RGBA8888
filter: Linear,Linear
repeat: none
B_tay-1
  rotate: false
  xy: 384, 53
  size: 43, 56
  orig: 43, 56
  offset: 0, 0
  index: -1
ao
  rotate: false
  xy: 694, 163
  size: 111, 80
  orig: 111, 80
  offset: 0, 0
  index: -1
balo
  rotate: false
  xy: 301, 53
  size: 81, 56
  orig: 81, 56
  offset: 0, 0
  index: -1
ban_c_1
  rotate: false
  xy: 263, 183
  size: 36, 60
  orig: 36, 60
  offset: 0, 0
  index: -1
chan1
  rotate: false
  xy: 565, 93
  size: 50, 36
  orig: 50, 36
  offset: 0, 0
  index: -1
chan_1
  rotate: false
  xy: 651, 117
  size: 44, 43
  orig: 44, 43
  offset: 0, 0
  index: -1
dau
  rotate: false
  xy: 169, 42
  size: 130, 136
  orig: 130, 136
  offset: 0, 0
  index: -1
duoi
  rotate: false
  xy: 579, 162
  size: 113, 81
  orig: 113, 81
  offset: 0, 0
  index: -1
leaf
  rotate: false
  xy: 2, 48
  size: 165, 130
  orig: 165, 130
  offset: 0, 0
  index: -1
light1
  rotate: false
  xy: 2, 180
  size: 259, 63
  orig: 259, 63
  offset: 0, 0
  index: -1
light2
  rotate: false
  xy: 301, 111
  size: 132, 132
  orig: 132, 132
  offset: 0, 0
  index: -1
luoi
  rotate: false
  xy: 697, 129
  size: 52, 32
  orig: 52, 32
  offset: 0, 0
  index: -1
mat
  rotate: true
  xy: 165, 16
  size: 24, 26
  orig: 24, 26
  offset: 0, 0
  index: -1
mat-fall-2-png
  rotate: false
  xy: 193, 21
  size: 18, 19
  orig: 18, 19
  offset: 0, 0
  index: -1
mat-fallpng
  rotate: false
  xy: 617, 102
  size: 28, 27
  orig: 28, 27
  offset: 0, 0
  index: -1
mat_2
  rotate: false
  xy: 147, 24
  size: 16, 22
  orig: 16, 22
  offset: 0, 0
  index: -1
mieng
  rotate: false
  xy: 78, 6
  size: 67, 40
  orig: 67, 40
  offset: 0, 0
  index: -1
mieng-fall
  rotate: false
  xy: 941, 226
  size: 81, 17
  orig: 81, 17
  offset: 0, 0
  index: -1
non
  rotate: false
  xy: 435, 162
  size: 142, 81
  orig: 142, 81
  offset: 0, 0
  index: -1
non_2
  rotate: false
  xy: 435, 115
  size: 64, 45
  orig: 64, 45
  offset: 0, 0
  index: -1
non_3
  rotate: false
  xy: 751, 133
  size: 41, 28
  orig: 41, 28
  offset: 0, 0
  index: -1
stun1
  rotate: false
  xy: 501, 131
  size: 73, 29
  orig: 73, 29
  offset: 0, 0
  index: -1
stun2
  rotate: false
  xy: 941, 191
  size: 72, 33
  orig: 72, 33
  offset: 0, 0
  index: -1
stun3
  rotate: false
  xy: 576, 131
  size: 73, 29
  orig: 73, 29
  offset: 0, 0
  index: -1
tay-1
  rotate: false
  xy: 2, 2
  size: 74, 44
  orig: 74, 44
  offset: 0, 0
  index: -1
tay_1
  rotate: false
  xy: 876, 180
  size: 63, 63
  orig: 63, 63
  offset: 0, 0
  index: -1
than
  rotate: false
  xy: 807, 176
  size: 67, 67
  orig: 67, 67
  offset: 0, 0
  index: -1
toc
  rotate: false
  xy: 501, 94
  size: 62, 35
  orig: 62, 35
  offset: 0, 0
  index: -1
