{
"skeleton": { "hash": "OI6GVvr0eoN76FfvmM5gkPHLZmA", "spine": "3.6.53", "width": 75.14, "height": 36.96, "fps": 60, "images": "./bird-ss2/" },
"bones": [
	{ "name": "root" },
	{ "name": "than", "parent": "root", "length": 24.95, "rotation": 168.61, "x": 4.45, "y": 28.03 },
	{ "name": "dau", "parent": "than", "length": 27.85, "rotation": -162.02, "x": -1.75, "y": -0.54 }
],
"slots": [
	{ "name": "than", "bone": "than", "attachment": "than" },
	{ "name": "dau", "bone": "dau", "attachment": "dau" },
	{ "name": "1", "bone": "root", "attachment": "1" }
],
"skins": {
	"default": {
		"1": {
			"1": { "x": -18.97, "y": 31.89, "width": 34, "height": 28 },
			"2": { "x": -18.76, "y": 22.18, "width": 33, "height": 20 },
			"3": { "x": -14.94, "y": 20.3, "width": 26, "height": 27 },
			"4": { "x": -12.33, "y": 15.74, "width": 21, "height": 35 },
			"5": { "x": -17.55, "y": 23.78, "width": 31, "height": 28 },
			"6": { "x": -16.95, "y": 32.49, "width": 30, "height": 28 }
		},
		"dau": {
			"dau": { "x": 12.86, "y": 3.31, "rotation": -6.58, "width": 41, "height": 32 }
		},
		"than": {
			"than": { "x": 9.11, "y": 0.32, "rotation": -168.61, "width": 44, "height": 35 }
		}
	}
},
"animations": {
	"animation": {
		"slots": {
			"1": {
				"attachment": [
					{ "time": 0.0833, "name": "2" },
					{ "time": 0.1667, "name": "3" },
					{ "time": 0.25, "name": "4" },
					{ "time": 0.3333, "name": "5" },
					{ "time": 0.4167, "name": "6" },
					{ "time": 0.5, "name": "1" }
				]
			}
		},
		"bones": {
			"dau": {
				"rotate": [
					{ "time": 0, "angle": 0 },
					{ "time": 0.1667, "angle": -4.13 },
					{ "time": 0.3333, "angle": 6.45 },
					{ "time": 0.5, "angle": 0 }
				]
			},
			"than": {
				"rotate": [
					{ "time": 0, "angle": 0 },
					{ "time": 0.1667, "angle": -3.6 },
					{ "time": 0.3333, "angle": -7.28 },
					{ "time": 0.5, "angle": 0 }
				],
				"translate": [
					{ "time": 0, "x": 0, "y": 0 },
					{ "time": 0.1667, "x": 0, "y": -0.55 },
					{ "time": 0.5, "x": 0, "y": 0 }
				]
			}
		}
	}
}
}