{
"skeleton": { "hash": "fzvWWUoZjtLM92GK1zSXAvMaXvI", "spine": "3.7.87", "width": 87.57, "height": 75.52, "images": "../image/", "audio": "" },
"bones": [
	{ "name": "root" },
	{ "name": "than", "parent": "root", "length": 35.69, "rotation": 136.17, "x": 10.22, "y": 24.92 },
	{ "name": "mieng", "parent": "than", "length": 26.85, "rotation": 17.76, "x": 11.87, "y": 25.92 },
	{ "name": "mat", "parent": "than", "x": 43.19, "y": -11.08 },
	{ "name": "vay", "parent": "than", "length": 16.36, "rotation": -162.73, "x": 9.9, "y": -21.91 },
	{ "name": "vay3", "parent": "than", "length": 8.65, "rotation": 175.51, "x": -1.59, "y": 15.04 },
	{ "name": "vay4", "parent": "vay3", "length": 6.74, "rotation": 10.83, "x": 8.65 },
	{ "name": "duoi", "parent": "than", "length": 7.63, "rotation": -133.08, "x": -10.52, "y": -1.53 },
	{ "name": "duoi2", "parent": "duoi", "length": 5.42, "rotation": 5.65, "x": 7.64, "y": 0.21 },
	{ "name": "duoi3", "parent": "duoi", "length": 7.65, "rotation": -65.84, "x": 0.03, "y": -3.3 },
	{ "name": "duoi4", "parent": "duoi3", "length": 5.83, "rotation": 14.88, "x": 7.65 }
],
"slots": [
	{ "name": "duoi", "bone": "duoi", "attachment": "duoi" },
	{ "name": "vay", "bone": "vay", "attachment": "vay" },
	{ "name": "than", "bone": "than", "attachment": "than" },
	{ "name": "mat", "bone": "mat", "attachment": "mat" },
	{ "name": "mieng", "bone": "mieng", "attachment": "mieng" },
	{ "name": "vay2", "bone": "vay3", "attachment": "vay2" }
],
"skins": {
	"default": {
		"duoi": {
			"duoi": {
				"type": "mesh",
				"uvs": [ 0.47198, 0.00442, 0.27416, 0.06596, 0.05242, 0.16596, 0, 0.27942, 0.00242, 0.42364, 0.09155, 0.63133, 0.18937, 0.8121, 0.33068, 1, 0.53937, 1, 0.69806, 0.94094, 0.79371, 0.84864, 0.7698, 0.71979, 0.65893, 0.5698, 0.55459, 0.45826, 0.79589, 0.43903, 0.91545, 0.37172, 1, 0.2948, 1, 0.12365, 0.90675, 0.0047, 0.72197, 0 ],
				"triangles": [ 9, 8, 12, 6, 12, 8, 8, 7, 6, 9, 11, 10, 9, 12, 11, 6, 13, 12, 6, 5, 13, 5, 4, 13, 1, 3, 2, 13, 3, 1, 1, 0, 13, 13, 19, 14, 13, 0, 19, 17, 15, 19, 15, 14, 19, 13, 4, 3, 16, 15, 17, 17, 19, 18 ],
				"vertices": [ 3, 7, 7.05, 6.19, 0.30051, 8, -0.01, 6.02, 0.69587, 9, -5.79, 10.29, 0.00362, 3, 7, 2.42, 4.84, 0.54844, 8, -4.75, 5.13, 0.40459, 9, -6.45, 5.51, 0.04697, 3, 7, -2.82, 2.52, 0.64887, 8, -10.18, 3.33, 0.1627, 9, -6.47, -0.21, 0.18842, 4, 7, -4.18, -0.36, 0.53486, 8, -11.82, 0.6, 0.0314, 9, -4.4, -2.63, 0.42396, 10, -12.32, 0.55, 0.00978, 4, 7, -4.33, -4.11, 0.28903, 8, -12.34, -3.12, 2.7E-4, 9, -1.05, -4.3, 0.60172, 10, -9.51, -1.93, 0.10899, 3, 7, -2.57, -9.61, 0.09741, 9, 4.69, -4.95, 0.58329, 10, -4.13, -4.03, 0.3193, 3, 7, -0.58, -14.43, 0.01302, 9, 9.9, -5.11, 0.36581, 10, 0.87, -5.51, 0.62117, 3, 7, 2.4, -19.48, 1.0E-5, 9, 15.73, -4.45, 0.1447, 10, 6.67, -6.38, 0.85529, 3, 7, 7.2, -19.74, 4.9E-4, 9, 17.93, -0.19, 0.02169, 10, 9.89, -2.82, 0.97782, 3, 7, 10.92, -18.4, 0.00378, 9, 18.24, 3.76, 4.0E-5, 10, 11.2, 0.91, 0.99618, 4, 7, 13.25, -16.13, 0.02335, 8, 3.97, -16.8, 1.0E-5, 9, 17.11, 6.82, 0.00866, 10, 10.9, 4.16, 0.96798, 4, 7, 12.88, -12.75, 0.0961, 8, 3.94, -13.41, 0.00812, 9, 13.88, 7.86, 0.04036, 10, 8.05, 6, 0.85542, 4, 7, 10.55, -8.72, 0.18934, 8, 2.01, -9.17, 0.09873, 9, 9.25, 7.38, 0.07333, 10, 3.44, 6.72, 0.63859, 4, 7, 8.31, -5.69, 0.25884, 8, 0.08, -5.94, 0.29145, 9, 5.57, 6.57, 0.08922, 10, -0.32, 6.89, 0.36048, 4, 7, 13.88, -5.49, 0.22281, 8, 5.64, -6.29, 0.57682, 9, 7.67, 11.74, 0.05893, 10, 3.04, 11.34, 0.14144, 4, 7, 16.72, -3.9, 0.1374, 8, 8.62, -4.97, 0.8083, 9, 7.37, 14.98, 0.02596, 10, 3.58, 14.55, 0.02833, 4, 7, 18.77, -2, 0.05058, 8, 10.85, -3.29, 0.94664, 9, 6.48, 17.63, 0.00146, 10, 3.4, 17.34, 0.00131, 4, 7, 19.01, 2.44, 0.01338, 8, 11.53, 1.1, 0.9865, 9, 2.53, 19.67, 5.0E-5, 10, 0.1, 20.32, 7.0E-5, 2, 7, 17.03, 5.64, 0.01319, 8, 9.88, 4.49, 0.98681, 2, 7, 12.79, 6, 0.10211, 8, 5.7, 5.25, 0.89789 ],
				"hull": 20,
				"edges": [ 0, 2, 2, 4, 4, 6, 6, 8, 8, 10, 10, 12, 12, 14, 14, 16, 16, 18, 18, 20, 20, 22, 22, 24, 24, 26, 26, 28, 28, 30, 30, 32, 32, 34, 34, 36, 36, 38, 0, 38 ],
				"width": 23,
				"height": 26
			}
		},
		"mat": {
			"mat": { "x": -1.02, "y": 0.82, "rotation": -136.17, "width": 24, "height": 23 }
		},
		"mieng": {
			"mieng": { "x": 9.86, "y": -2.22, "rotation": -163.51, "width": 46, "height": 36 }
		},
		"than": {
			"than": { "x": 16.65, "y": 2, "rotation": -136.17, "width": 64, "height": 75 }
		},
		"vay": {
			"vay": { "x": 8.75, "y": -1.34, "rotation": 26.57, "width": 21, "height": 24 }
		},
		"vay2": {
			"vay2": {
				"type": "mesh",
				"uvs": [ 0.20974, 0, 0.07403, 0.14907, 0, 0.32526, 0, 0.58001, 0.1276, 0.82049, 0.39545, 0.96096, 0.68116, 1, 0.84544, 1, 1, 0.80144, 1, 0.55859, 0.98473, 0.31097, 0.79544, 0.11574, 0.57402, 0 ],
				"triangles": [ 7, 6, 8, 8, 6, 9, 9, 6, 5, 11, 5, 4, 9, 5, 11, 11, 4, 12, 0, 12, 1, 2, 12, 3, 1, 12, 2, 9, 11, 10, 12, 4, 3 ],
				"vertices": [ 1, 5, -3.98, -1.38, 1, 2, 5, -1.33, -3.91, 0.98567, 6, -10.54, -1.92, 0.01433, 2, 5, 2.06, -5.71, 0.89356, 6, -7.56, -4.34, 0.10644, 2, 5, 7.29, -6.86, 0.69279, 6, -2.65, -6.47, 0.30721, 2, 5, 12.6, -6.2, 0.40956, 6, 2.7, -6.84, 0.59044, 2, 5, 16.29, -3.17, 0.17081, 6, 6.89, -4.57, 0.82919, 2, 5, 17.95, 0.56, 0.04564, 6, 9.24, -1.23, 0.95436, 2, 5, 18.44, 2.81, 0.07514, 6, 10.15, 0.88, 0.92486, 2, 5, 14.83, 5.82, 0.24297, 6, 7.18, 4.53, 0.75703, 2, 5, 9.85, 6.91, 0.5096, 6, 2.5, 6.55, 0.4904, 2, 5, 4.73, 7.82, 0.77156, 6, -2.35, 8.42, 0.22844, 2, 5, 0.15, 6.11, 0.9346, 6, -7.17, 7.62, 0.0654, 2, 5, -2.89, 3.6, 0.99391, 6, -10.63, 5.74, 0.00609 ],
				"hull": 13,
				"edges": [ 0, 2, 2, 4, 4, 6, 6, 8, 8, 10, 10, 12, 12, 14, 14, 16, 16, 18, 18, 20, 20, 22, 22, 24, 0, 24 ],
				"width": 14,
				"height": 21
			}
		}
	}
},
"animations": {
	"dung yen": {
		"bones": {
			"than": {
				"rotate": [
					{ "time": 0, "angle": 0 },
					{ "time": 0.2667, "angle": -3.65 },
					{ "time": 0.5, "angle": -0.44 },
					{ "time": 0.7667, "angle": 5.93 },
					{ "time": 1, "angle": 0 }
				],
				"translate": [
					{ "time": 0, "x": 0, "y": 0 },
					{ "time": 0.5, "x": 0, "y": -16.85 },
					{ "time": 1, "x": 0, "y": 0 }
				],
				"scale": [
					{ "time": 0, "x": 1, "y": 1 },
					{ "time": 0.5, "x": 1.057, "y": 1.033 },
					{ "time": 1, "x": 1, "y": 1 }
				]
			},
			"mieng": {
				"rotate": [
					{ "time": 0, "angle": 0 },
					{ "time": 0.2667, "angle": 18.86 },
					{ "time": 0.7667, "angle": -13.23 },
					{ "time": 1, "angle": 0 }
				],
				"scale": [
					{ "time": 0, "x": 1, "y": 1 },
					{ "time": 0.2667, "x": 0.897, "y": 1 },
					{ "time": 0.5, "x": 0.881, "y": 1 },
					{ "time": 0.7667, "x": 1.102, "y": 1 },
					{ "time": 1, "x": 1, "y": 1 }
				]
			},
			"mat": {
				"scale": [
					{ "time": 0, "x": 1, "y": 1 },
					{ "time": 0.2667, "x": 0.658, "y": 0.658 },
					{ "time": 1, "x": 1, "y": 1 }
				]
			},
			"vay": {
				"rotate": [
					{ "time": 0, "angle": 0 },
					{ "time": 0.2667, "angle": 21.91 },
					{ "time": 1, "angle": 0 }
				]
			},
			"vay3": {
				"rotate": [
					{ "time": 0, "angle": 0 },
					{ "time": 0.3333, "angle": -21.57 },
					{ "time": 0.6667, "angle": 26.01 },
					{ "time": 1, "angle": 0 }
				]
			},
			"vay4": {
				"rotate": [
					{ "time": 0, "angle": 0 },
					{ "time": 0.3333, "angle": -47.13 },
					{ "time": 0.6667, "angle": 21.87 },
					{ "time": 1, "angle": 0 }
				]
			},
			"duoi": {
				"rotate": [
					{ "time": 0, "angle": 0 },
					{ "time": 0.2667, "angle": 13.31 },
					{ "time": 0.6667, "angle": -17.13 },
					{ "time": 1, "angle": 0 }
				]
			},
			"duoi2": {
				"rotate": [
					{ "time": 0, "angle": 0 },
					{ "time": 0.2667, "angle": 13.31 },
					{ "time": 0.6667, "angle": -17.13 },
					{ "time": 1, "angle": 0 }
				]
			},
			"duoi3": {
				"rotate": [
					{ "time": 0, "angle": 0 },
					{ "time": 0.2667, "angle": 13.31 },
					{ "time": 0.6667, "angle": -17.13 },
					{ "time": 1, "angle": 0 }
				]
			},
			"duoi4": {
				"rotate": [
					{ "time": 0, "angle": 0 },
					{ "time": 0.2667, "angle": 13.31 },
					{ "time": 0.6667, "angle": -17.13 },
					{ "time": 1, "angle": 0 }
				]
			}
		}
	},
	"tan cong": {
		"bones": {
			"than": {
				"rotate": [
					{ "time": 0, "angle": 0 },
					{ "time": 0.1667, "angle": -7.83 },
					{ "time": 0.4, "angle": 0 }
				],
				"scale": [
					{ "time": 0, "x": 1, "y": 1 },
					{ "time": 0.1667, "x": 1.132, "y": 0.995 },
					{ "time": 0.3333, "x": 1.251, "y": 0.995 },
					{ "time": 0.4, "x": 0.889, "y": 1.06 },
					{ "time": 0.5333, "x": 1, "y": 1 }
				]
			},
			"mieng": {
				"rotate": [
					{ "time": 0, "angle": 0 },
					{ "time": 0.1667, "angle": 44.11 },
					{ "time": 0.2333, "angle": 68.57 },
					{ "time": 0.3333, "angle": 56.42 },
					{ "time": 0.4, "angle": -28.86 },
					{ "time": 0.5333, "angle": 0 }
				],
				"translate": [
					{ "time": 0, "x": 0, "y": 0 },
					{ "time": 0.1667, "x": -7.31, "y": 1.02 },
					{ "time": 0.3333, "x": -3.46, "y": 7.83 },
					{ "time": 0.4, "x": 0.33, "y": -2.28 },
					{ "time": 0.5333, "x": 0, "y": 0 }
				],
				"scale": [
					{ "time": 0, "x": 1, "y": 1 },
					{ "time": 0.3333, "x": 0.962, "y": 1 },
					{ "time": 0.4, "x": 1.184, "y": 1 },
					{ "time": 0.5333, "x": 1, "y": 1 }
				]
			},
			"mat": {
				"scale": [
					{ "time": 0, "x": 0.982, "y": 0.982 },
					{ "time": 0.1667, "x": 0.99, "y": 1.295 },
					{ "time": 0.4, "x": 0.713, "y": 0.713 },
					{ "time": 0.5333, "x": 0.982, "y": 0.982 }
				]
			},
			"vay": {
				"rotate": [
					{ "time": 0, "angle": 0 },
					{ "time": 0.2333, "angle": -0.55 },
					{ "time": 0.4, "angle": 0 }
				]
			},
			"vay3": {
				"rotate": [
					{ "time": 0, "angle": 0 },
					{ "time": 0.2333, "angle": 67.05 },
					{ "time": 0.4, "angle": 0 }
				]
			},
			"vay4": {
				"rotate": [
					{ "time": 0, "angle": 0 },
					{ "time": 0.2333, "angle": -34.7 },
					{ "time": 0.4, "angle": 0 }
				]
			},
			"duoi": {
				"rotate": [
					{ "time": 0, "angle": 0 },
					{ "time": 0.2333, "angle": 12.23 },
					{ "time": 0.4, "angle": -21.07 },
					{ "time": 0.5333, "angle": 0 }
				]
			},
			"duoi2": {
				"rotate": [
					{ "time": 0, "angle": 0 },
					{ "time": 0.2333, "angle": 12.23 },
					{ "time": 0.4, "angle": -21.93 },
					{ "time": 0.5333, "angle": 0 }
				]
			},
			"duoi3": {
				"rotate": [
					{ "time": 0, "angle": 0 },
					{ "time": 0.2333, "angle": 12.23 },
					{ "time": 0.4, "angle": -21.07 },
					{ "time": 0.5333, "angle": 0 }
				]
			},
			"duoi4": {
				"rotate": [
					{ "time": 0, "angle": 0 },
					{ "time": 0.2333, "angle": 12.23 },
					{ "time": 0.4, "angle": 0 }
				]
			}
		}
	}
}
}