
ef_flash2.png
size: 2048,1024
format: RGBA8888
filter: Linear,Linear
repeat: none
2
  rotate: false
  xy: 2, 578
  size: 597, 286
  orig: 597, 286
  offset: 0, 0
  index: -1
3
  rotate: false
  xy: 2, 290
  size: 597, 286
  orig: 597, 286
  offset: 0, 0
  index: -1
4
  rotate: false
  xy: 601, 578
  size: 597, 286
  orig: 597, 286
  offset: 0, 0
  index: -1
5
  rotate: false
  xy: 2, 2
  size: 597, 286
  orig: 597, 286
  offset: 0, 0
  index: -1
6
  rotate: false
  xy: 601, 290
  size: 597, 286
  orig: 597, 286
  offset: 0, 0
  index: -1
