{
"skeleton": { "hash": "HQodofwhINX8LRPOSUtqDhCmOCU", "spine": "3.7.87", "width": 196.05, "height": 175.94, "images": "../image/", "audio": "F:/LUC/monkey_run/monkey_spine" },
"bones": [
	{ "name": "root" },
	{ "name": "bone", "parent": "root", "x": 3.8, "y": 61.86 },
	{ "name": "bone4", "parent": "root", "x": 68.11, "y": 17.87 },
	{ "name": "bone5", "parent": "root", "x": 38.45, "y": 79.76 },
	{ "name": "bone6", "parent": "root", "x": -19.48, "y": 97.09 },
	{ "name": "bone7", "parent": "root", "x": -49.75, "y": 101.71 },
	{ "name": "bone8", "parent": "root", "x": 8.21, "y": 69.42 },
	{ "name": "bone9", "parent": "root", "x": -24.36, "y": 33.22 },
	{ "name": "e0", "parent": "root", "x": 3.35, "y": 60.85 },
	{ "name": "e1", "parent": "root", "rotation": 35.17, "x": -0.15, "y": 65.91 },
	{ "name": "e2", "parent": "root", "rotation": -148.12, "x": -1.32, "y": 53.07 },
	{ "name": "e3", "parent": "root", "rotation": 162.55, "x": 13.46, "y": 56.57 },
	{ "name": "smoke", "parent": "e0", "x": -0.42, "y": -17.08 },
	{ "name": "smoke2", "parent": "e1", "x": -0.42, "y": -17.08 },
	{ "name": "smoke3", "parent": "e2", "x": -0.42, "y": -17.08 },
	{ "name": "smoke4", "parent": "e3", "x": -0.42, "y": -17.08 },
	{ "name": "bone10", "parent": "root", "x": 37.31, "y": 35.62 },
	{ "name": "bone11", "parent": "root", "x": 10.95, "y": 29.36 }
],
"slots": [
	{ "name": "da2", "bone": "bone", "dark": "000000", "attachment": "1" },
	{ "name": "13", "bone": "bone9", "color": "ffffff00" },
	{ "name": "10", "bone": "bone6", "color": "ffffff00", "attachment": "2" },
	{ "name": "8", "bone": "bone4", "color": "ffffff00", "attachment": "3" },
	{ "name": "15", "bone": "bone11", "color": "ffffff00", "attachment": "3" },
	{ "name": "14", "bone": "bone10", "color": "ffffff00", "attachment": "3" },
	{ "name": "9", "bone": "bone5", "color": "ffffff00", "attachment": "4" },
	{ "name": "11", "bone": "bone7", "color": "ffffff00", "attachment": "5" },
	{ "name": "12", "bone": "bone8", "color": "ffffff00", "attachment": "6" },
	{ "name": "smoke2", "bone": "smoke", "color": "ffffff00", "attachment": "smoke" },
	{ "name": "smoke3", "bone": "smoke2", "color": "ffffff00", "attachment": "smoke" },
	{ "name": "smoke4", "bone": "smoke3", "color": "ffffff00", "attachment": "smoke" },
	{ "name": "smoke5", "bone": "smoke4", "color": "ffffff00", "attachment": "smoke" }
],
"skins": {
	"default": {
		"10": {
			"2": { "x": -0.8, "y": -0.32, "width": 26, "height": 26 }
		},
		"11": {
			"5": { "x": -1.07, "y": -0.02, "width": 29, "height": 33 }
		},
		"12": {
			"6": { "x": -0.62, "y": -0.65, "width": 9, "height": 10 }
		},
		"13": {
			"1": { "x": 3.35, "y": 5.22, "width": 115, "height": 125 }
		},
		"14": {
			"3": { "x": -0.04, "y": -0.46, "width": 15, "height": 17 }
		},
		"15": {
			"3": { "x": -0.04, "y": -0.46, "width": 15, "height": 17 }
		},
		"8": {
			"3": { "x": -0.04, "y": -0.46, "width": 15, "height": 17 }
		},
		"9": {
			"4": { "x": 1.13, "y": 2.76, "width": 15, "height": 17 }
		},
		"da2": {
			"1": { "x": 0.31, "y": 0.11, "width": 115, "height": 125 }
		},
		"smoke2": {
			"smoke": { "x": -1.17, "y": -0.11, "width": 114, "height": 116 }
		},
		"smoke3": {
			"smoke": { "x": -1.17, "y": -0.11, "scaleX": 0.732, "scaleY": 0.732, "width": 114, "height": 116 }
		},
		"smoke4": {
			"smoke": { "x": -1.17, "y": -0.11, "scaleX": 1.109, "scaleY": 1.109, "width": 114, "height": 116 }
		},
		"smoke5": {
			"smoke": { "x": -1.17, "y": -0.11, "scaleX": 1.104, "scaleY": 1.104, "width": 114, "height": 116 }
		}
	}
},
"animations": {
	"explode": {
		"slots": {
			"10": {
				"color": [
					{ "time": 0.1667, "color": "ffffffff" }
				]
			},
			"11": {
				"color": [
					{ "time": 0.1667, "color": "ffffffff" }
				]
			},
			"12": {
				"color": [
					{ "time": 0.1667, "color": "ffffffff" }
				]
			},
			"13": {
				"color": [
					{ "time": 0.1667, "color": "ffffffff" }
				]
			},
			"14": {
				"color": [
					{ "time": 0.1667, "color": "ffffffff" }
				]
			},
			"15": {
				"color": [
					{ "time": 0.1667, "color": "ffffffff" }
				]
			},
			"8": {
				"color": [
					{ "time": 0.1667, "color": "ffffffff" }
				]
			},
			"9": {
				"color": [
					{ "time": 0.1667, "color": "ffffffff" }
				]
			},
			"da2": {
				"twoColor": [
					{ "time": 0.1, "light": "c1c1c1ff", "dark": "000000" },
					{ "time": 0.1667, "light": "ffffff00", "dark": "000000" }
				]
			},
			"smoke2": {
				"color": [
					{ "time": 0.0667, "color": "ffffff73" },
					{ "time": 0.2, "color": "ffffffa8" },
					{ "time": 0.4, "color": "ffffff00" }
				]
			},
			"smoke3": {
				"color": [
					{ "time": 0.0667, "color": "ffffff73" },
					{ "time": 0.2, "color": "ffffffa8" },
					{ "time": 0.4, "color": "ffffff00" }
				]
			},
			"smoke4": {
				"color": [
					{ "time": 0.0667, "color": "ffffff73" },
					{ "time": 0.2, "color": "ffffffa8" },
					{ "time": 0.4, "color": "ffffff00" }
				]
			},
			"smoke5": {
				"color": [
					{ "time": 0.0667, "color": "ffffff73" },
					{ "time": 0.2, "color": "ffffffa8" },
					{ "time": 0.4, "color": "ffffff00" }
				]
			}
		},
		"bones": {
			"bone9": {
				"rotate": [
					{ "time": 0.1667, "angle": 0 },
					{ "time": 0.6667, "angle": 99.23 },
					{ "time": 0.8333, "angle": 67.44 }
				],
				"translate": [
					{ "time": 0.1667, "x": 0, "y": 0 },
					{ "time": 0.3333, "x": 14.81, "y": 23.92 },
					{ "time": 0.6667, "x": 61.04, "y": 0 },
					{ "time": 0.7333, "x": 61.04, "y": 12.19 },
					{ "time": 0.8333, "x": 61.04, "y": 0 }
				]
			},
			"bone6": {
				"rotate": [
					{ "time": 0.2333, "angle": 0 },
					{ "time": 0.7333, "angle": 113.24 },
					{ "time": 0.9, "angle": 81.46 }
				],
				"translate": [
					{ "time": 0.2333, "x": 0, "y": 0 },
					{ "time": 0.4, "x": 34.17, "y": 51.63 },
					{ "time": 0.7333, "x": 102.51, "y": -66.06 },
					{ "time": 0.8, "x": 102.51, "y": -53.87 },
					{ "time": 0.9, "x": 102.51, "y": -66.06 }
				]
			},
			"bone4": {
				"rotate": [
					{ "time": 0.3333, "angle": 0 },
					{ "time": 0.5, "angle": -88.62 },
					{ "time": 0.8333, "angle": 174.74 },
					{ "time": 1, "angle": 142.96 }
				],
				"translate": [
					{ "time": 0.3333, "x": 0, "y": 0 },
					{ "time": 0.5, "x": 28.36, "y": 42.18 },
					{ "time": 0.8333, "x": 69.29, "y": 0 },
					{ "time": 0.9, "x": 69.29, "y": 12.19 },
					{ "time": 1, "x": 69.29, "y": 0 },
					{ "time": 1.1, "x": 72.7, "y": -13.93 }
				]
			},
			"bone5": {
				"rotate": [
					{ "time": 0.2333, "angle": 0 },
					{ "time": 0.4, "angle": -84.77 },
					{ "time": 0.7333, "angle": -173.82 },
					{ "time": 0.9, "angle": 154.4 },
					{ "time": 1.1, "angle": 112.45 }
				],
				"translate": [
					{ "time": 0.2333, "x": 0, "y": 0 },
					{ "time": 0.4, "x": 39.89, "y": 80.4 },
					{ "time": 0.7333, "x": 159.54, "y": -57.99 },
					{ "time": 0.8, "x": 159.54, "y": -45.8 },
					{ "time": 0.9, "x": 159.54, "y": -57.99 }
				]
			},
			"bone7": {
				"rotate": [
					{ "time": 0.1667, "angle": 0 },
					{ "time": 0.3333, "angle": -177.37 },
					{ "time": 0.6667, "angle": 51.17 },
					{ "time": 0.8333, "angle": 19.39 },
					{ "time": 1.1, "angle": 19.39 }
				],
				"translate": [
					{ "time": 0.1667, "x": 0, "y": 0 },
					{ "time": 0.3333, "x": 112.76, "y": 112.38 },
					{ "time": 0.6667, "x": 338.28, "y": -83.15 },
					{ "time": 0.7333, "x": 338.28, "y": -70.96 },
					{ "time": 0.8333, "x": 338.28, "y": -83.15 },
					{ "time": 1.1, "x": 338.28, "y": -88.98 }
				]
			},
			"bone8": {
				"rotate": [
					{ "time": 0.2667, "angle": 0 },
					{ "time": 0.4333, "angle": -92.04 },
					{ "time": 0.7667, "angle": -176.48 },
					{ "time": 0.9333, "angle": 151.74 },
					{ "time": 1.1, "angle": 151.74 }
				],
				"translate": [
					{ "time": 0.2667, "x": 0, "y": 0 },
					{ "time": 0.4333, "x": 113.39, "y": 106.54 },
					{ "time": 0.7667, "x": 340.17, "y": -49.42 },
					{ "time": 0.8333, "x": 340.17, "y": -37.24 },
					{ "time": 0.9333, "x": 340.17, "y": -49.42 },
					{ "time": 1.1, "x": 340.17, "y": -60.02 }
				]
			},
			"bone": {
				"rotate": [
					{ "time": 0, "angle": 0 },
					{ "time": 0.1, "angle": -7.28 }
				],
				"translate": [
					{ "time": 0, "x": 0, "y": 0 },
					{ "time": 0.1, "x": 2.63, "y": 0 }
				],
				"scale": [
					{ "time": 0, "x": 1, "y": 1 },
					{ "time": 0.1, "x": 0.979, "y": 1.02 }
				]
			},
			"smoke": {
				"rotate": [
					{ "time": 0.0667, "angle": 0 },
					{ "time": 0.4, "angle": -48.55 }
				],
				"translate": [
					{ "time": 0.0667, "x": 0, "y": 0 },
					{ "time": 0.4, "x": -7.17, "y": -14.35 }
				],
				"scale": [
					{ "time": 0.0667, "x": 1, "y": 1 },
					{ "time": 0.4, "x": 1.5, "y": 1.5 }
				]
			},
			"smoke2": {
				"rotate": [
					{ "time": 0.0667, "angle": 0 },
					{ "time": 0.4, "angle": -48.55 }
				],
				"translate": [
					{ "time": 0.0667, "x": 0, "y": 0 },
					{ "time": 0.4, "x": -7.17, "y": -14.35 }
				],
				"scale": [
					{ "time": 0.0667, "x": 1, "y": 1 },
					{ "time": 0.4, "x": 1.5, "y": 1.5 }
				]
			},
			"smoke3": {
				"rotate": [
					{ "time": 0.0667, "angle": 0 },
					{ "time": 0.4, "angle": -48.55 }
				],
				"translate": [
					{ "time": 0.0667, "x": 0, "y": 0 },
					{ "time": 0.4, "x": -7.17, "y": -14.35 }
				],
				"scale": [
					{ "time": 0.0667, "x": 1, "y": 1 },
					{ "time": 0.4, "x": 1.5, "y": 1.5 }
				]
			},
			"smoke4": {
				"rotate": [
					{ "time": 0.0667, "angle": 0 },
					{ "time": 0.4, "angle": -48.55 }
				],
				"translate": [
					{ "time": 0.0667, "x": 0, "y": 0 },
					{ "time": 0.4, "x": -7.17, "y": -14.35 }
				],
				"scale": [
					{ "time": 0.0667, "x": 1, "y": 1 },
					{ "time": 0.4, "x": 1.5, "y": 1.5 }
				]
			},
			"bone10": {
				"rotate": [
					{ "time": 0.3333, "angle": 0 },
					{ "time": 0.5, "angle": -88.62 },
					{ "time": 0.8333, "angle": 174.74 },
					{ "time": 1, "angle": 142.96 }
				],
				"translate": [
					{ "time": 0.3333, "x": 0, "y": 0 },
					{ "time": 0.5, "x": 28.36, "y": 42.18 },
					{ "time": 0.8333, "x": 69.29, "y": 0 },
					{ "time": 0.9, "x": 69.29, "y": 12.19 },
					{ "time": 1, "x": 69.29, "y": 0 },
					{ "time": 1.1, "x": 68.53, "y": -29.85 }
				]
			},
			"bone11": {
				"rotate": [
					{ "time": 0.3333, "angle": 0 },
					{ "time": 0.5, "angle": -88.62 },
					{ "time": 0.8333, "angle": 174.74 },
					{ "time": 1, "angle": 142.96 }
				],
				"translate": [
					{ "time": 0.3333, "x": 0, "y": 0 },
					{ "time": 0.5, "x": 28.36, "y": 42.18 },
					{ "time": 0.8333, "x": 69.29, "y": 0 },
					{ "time": 0.9, "x": 69.29, "y": 12.19 },
					{ "time": 1, "x": 69.29, "y": 0 },
					{ "time": 1.1, "x": 69.29, "y": -14.31 }
				]
			}
		}
	}
}
}