{
"skeleton": { "hash": "FaXygUZ+sgAP83zJm/G1CMoxYY4", "spine": "3.6.53", "width": 133, "height": 151, "images": "./image mang nhen/" },
"bones": [
	{ "name": "root" },
	{ "name": "1", "parent": "root", "x": -0.33, "y": 56.46 }
],
"slots": [
	{ "name": "1", "bone": "1", "attachment": "1" }
],
"skins": {
	"default": {
		"1": {
			"1": { "x": -7.09, "y": -4.19, "width": 133, "height": 151 },
			"2": { "x": -7.03, "y": -3.63, "width": 133, "height": 151 },
			"3": { "x": -9.84, "y": -3.68, "width": 133, "height": 151 },
			"4": { "x": -4.95, "y": -5.31, "width": 147, "height": 155 },
			"5": { "x": -5.44, "y": -5.97, "width": 145, "height": 156 },
			"6": { "x": -10.23, "y": -6.3, "width": 134, "height": 156 },
			"7": { "x": -8.41, "y": -9.11, "width": 135, "height": 163 },
			"8": { "x": -11.55, "y": -8.45, "width": 143, "height": 162 },
			"9": { "x": -7.86, "y": -8.96, "width": 135, "height": 163 },
			"10": { "x": -8.41, "y": -9.44, "width": 135, "height": 162 }
		}
	}
},
"animations": {
	"animation": {
		"slots": {
			"1": {
				"attachment": [
					{ "time": 0.1667, "name": "2" },
					{ "time": 0.3333, "name": "3" },
					{ "time": 0.5, "name": "4" },
					{ "time": 0.6667, "name": "5" },
					{ "time": 0.8333, "name": "6" },
					{ "time": 1, "name": "7" },
					{ "time": 1.1667, "name": "8" },
					{ "time": 1.3333, "name": "9" },
					{ "time": 1.5, "name": "10" },
					{ "time": 1.6667, "name": "1" }
				]
			}
		},
		"bones": {
			"root": {
				"rotate": [
					{ "time": 0, "angle": 0 }
				],
				"translate": [
					{ "time": 0, "x": 0, "y": 0 }
				],
				"scale": [
					{ "time": 0, "x": 1, "y": 1 }
				]
			},
			"1": {
				"rotate": [
					{ "time": 0, "angle": 0 }
				],
				"translate": [
					{ "time": 0, "x": 0, "y": 0 }
				],
				"scale": [
					{ "time": 0, "x": 1, "y": 1 }
				]
			}
		}
	}
}
}