
wave.png
size: 2048,1024
format: RGBA8888
filter: Linear,Linear
repeat: none
1
  rotate: false
  xy: 1033, 354
  size: 680, 662
  orig: 680, 662
  offset: 0, 0
  index: -1
2
  rotate: false
  xy: 2, 413
  size: 1029, 603
  orig: 1029, 603
  offset: 0, 0
  index: -1
3
  rotate: true
  xy: 2, 25
  size: 386, 603
  orig: 386, 603
  offset: 0, 0
  index: -1
4
  rotate: false
  xy: 607, 374
  size: 50, 37
  orig: 50, 37
  offset: 0, 0
  index: -1
5
  rotate: true
  xy: 2, 2
  size: 21, 39
  orig: 21, 39
  offset: 0, 0
  index: -1
6
  rotate: false
  xy: 1715, 973
  size: 65, 43
  orig: 65, 43
  offset: 0, 0
  index: -1
